\relax 
\bbl@beforestart
\catcode `"\active 
\babel@aux{russian}{}
\@writefile{toc}{\contentsline {chapter}{\numberline {1}Нахождение корней линейного уравнения методом обратной матрицы}{2}\protected@file@percent }
\@writefile{lof}{\addvspace {10\p@ }}
\@writefile{lot}{\addvspace {10\p@ }}
\@writefile{toc}{\contentsline {section}{\numberline {1.1}Теория}{2}\protected@file@percent }
\@writefile{toc}{\contentsline {section}{\numberline {1.2}Исходный код}{2}\protected@file@percent }
\@writefile{toc}{\contentsline {section}{\numberline {1.3}Результат работы}{3}\protected@file@percent }
\@writefile{toc}{\contentsline {chapter}{\numberline {2}Нахождение корня методом касательных}{4}\protected@file@percent }
\@writefile{lof}{\addvspace {10\p@ }}
\@writefile{lot}{\addvspace {10\p@ }}
\@writefile{toc}{\contentsline {section}{\numberline {2.1}Теория}{4}\protected@file@percent }
\@writefile{toc}{\contentsline {section}{\numberline {2.2}Исходный код}{4}\protected@file@percent }
\@writefile{toc}{\contentsline {section}{\numberline {2.3}Результат работы}{6}\protected@file@percent }
\@writefile{toc}{\contentsline {chapter}{\numberline {3}Полином Лагранжа}{7}\protected@file@percent }
\@writefile{lof}{\addvspace {10\p@ }}
\@writefile{lot}{\addvspace {10\p@ }}
\@writefile{toc}{\contentsline {section}{\numberline {3.1}Теория}{7}\protected@file@percent }
\@writefile{toc}{\contentsline {section}{\numberline {3.2}Исходный код}{7}\protected@file@percent }
\@writefile{toc}{\contentsline {section}{\numberline {3.3}Результат работы}{8}\protected@file@percent }
